<svg width="231" height="198" viewBox="0 0 231 198" fill="none" xmlns="http://www.w3.org/2000/svg">
<g clip-path="url(#clip0)" filter="url(#filter0_d)">
<path d="M174.245 109.486C173.726 110.093 173.726 115.555 173.726 115.555C173.726 115.555 161.095 137.23 159.278 137.49C157.548 137.836 149.848 122.491 149.848 122.491L141.975 129.774C141.975 129.774 146.127 149.107 158.932 152.488C164.988 154.049 175.63 134.715 182.724 118.676C182.811 118.416 186.531 109.66 186.531 109.66L174.245 109.486Z" fill="#D09788"/>
<path d="M165.542 55.9787L161.758 57.2142L187.971 137.832L191.755 136.597L165.542 55.9787Z" fill="#263238"/>
<path d="M163.815 56.5705L160.031 57.806L186.245 138.424L190.028 137.189L163.815 56.5705Z" fill="#455A64"/>
<path d="M180.026 7.80275L125.981 25.449L140.187 69.1378L194.232 51.4916L180.026 7.80275Z" fill="#75CDD3"/>
<g opacity="0.3">
<path opacity="0.3" d="M180.026 7.80275L125.981 25.449L140.187 69.1378L194.232 51.4916L180.026 7.80275Z" fill="black"/>
</g>
<path d="M178.113 8.40038L124.068 26.0466L138.274 69.7354L192.319 52.0892L178.113 8.40038Z" fill="#75CDD3"/>
<g filter="url(#filter1_d)">
<path d="M151.838 37.9612L153.655 37.3543L155.731 30.4185L154.433 26.7773C154.433 26.7773 157.202 25.6502 158.5 30.5052C159.797 35.447 159.797 34.0598 159.797 34.0598C159.797 34.0598 165.854 31.9791 166.459 32.3259C166.978 32.586 169.228 38.4814 170.352 41.6892C170.958 43.3364 170.439 45.1571 169.141 46.1107C168.968 46.2841 168.709 46.3708 168.536 46.4575C167.065 46.9777 158.932 48.4516 158.932 48.4516L155.731 49.5786L151.838 37.9612Z" fill="white"/>
<path d="M146.214 38.7415L151.664 50.8791L154.866 49.8387L150.54 37.5277L146.214 38.7415Z" fill="white"/>
</g>
<path d="M187.483 108.446C187.483 108.446 187.483 108.533 187.396 108.619C187.05 109.486 185.233 111.914 184.714 111.827C184.022 111.654 183.157 111.827 183.416 110.267C183.503 109.747 185.406 106.886 185.406 106.886C185.406 106.886 185.839 106.279 187.223 106.799C188.002 107.146 187.483 108.446 187.483 108.446Z" fill="#D09788"/>
<path d="M185.752 105.845C185.752 105.845 185.752 105.932 185.665 106.019C185.233 107.059 182.897 111.134 182.291 110.96C181.599 110.874 180.388 109.747 180.561 109.14C180.734 108.533 183.675 104.111 183.675 104.111C183.675 104.111 184.194 103.418 185.492 103.938C186.357 104.285 185.752 105.845 185.752 105.845Z" fill="#D09788"/>
<path d="M183.762 103.678C183.762 103.678 183.762 103.764 183.676 103.851C183.243 104.891 180.907 108.966 180.302 108.793C179.61 108.706 178.398 107.579 178.571 106.972C178.744 106.365 181.686 101.944 181.686 101.944C181.686 101.944 182.205 101.25 183.503 101.77C184.368 102.204 183.762 103.678 183.762 103.678Z" fill="#D09788"/>
<path d="M181.772 101.684C181.772 101.684 181.772 101.77 181.686 101.857C181.253 102.897 178.917 106.972 178.312 106.799C177.619 106.712 176.408 105.585 176.581 104.978C176.754 104.371 179.696 99.9497 179.696 99.9497C179.696 99.9497 180.215 99.2562 181.513 99.7763C182.378 100.123 181.772 101.684 181.772 101.684Z" fill="#D09788"/>
<path d="M182.897 110.787C182.984 110.787 183.589 110.007 184.195 108.88C184.887 107.839 185.32 106.886 185.233 106.886C185.147 106.886 184.541 107.666 183.935 108.793C183.33 109.92 182.811 110.787 182.897 110.787Z" fill="#D09788"/>
<path d="M180.474 109.486C180.561 109.486 181.339 108.273 182.291 106.799C183.243 105.238 183.935 103.938 183.848 103.938C183.762 103.938 182.983 105.152 182.031 106.625C181.08 108.186 180.388 109.4 180.474 109.486Z" fill="#D09788"/>
<g opacity="0.78">
<g opacity="0.78">
<g opacity="0.78">
<path opacity="0.78" d="M178.485 106.972C178.571 106.972 179.264 106.019 180.129 104.718C180.994 103.418 181.599 102.377 181.513 102.291C181.426 102.291 180.734 103.244 179.869 104.545C179.09 105.845 178.398 106.972 178.485 106.972Z" fill="#D09788"/>
</g>
</g>
</g>
<path d="M175.024 116.596L174.159 112.781C173.813 111.134 174.073 109.4 174.938 107.926L175.63 106.799L184.282 111.22C184.282 111.22 181.859 113.735 179.783 112.174C181.167 113.908 181.167 117.116 180.302 119.63L175.024 116.596Z" fill="#D09788"/>
<path d="M180.561 115.642C180.474 115.642 180.561 115.208 180.474 114.428C180.388 113.735 179.955 112.608 179.003 111.827L178.225 111.22L179.176 111.567C179.868 111.741 180.561 112.001 181.339 112.261H181.253C182.118 112.347 183.243 112.087 183.762 111.22C183.762 111.134 183.848 111.047 183.848 111.047L183.935 111.307C181.512 110.18 179.436 109.226 177.879 108.359C176.408 107.579 175.456 106.972 175.543 106.886C175.543 106.799 176.494 107.319 178.052 108.013C179.609 108.793 181.772 109.747 184.108 110.787L184.281 110.874L184.194 111.047C184.194 111.134 184.108 111.22 184.021 111.307C183.675 111.827 183.243 112.174 182.723 112.347C182.204 112.521 181.685 112.521 181.166 112.521C180.388 112.261 179.695 112.001 179.003 111.741L179.176 111.394C180.214 112.347 180.561 113.475 180.647 114.255C180.734 115.295 180.561 115.729 180.561 115.642Z" fill="#D09788"/>
<path d="M183.676 109.833C183.762 109.833 183.589 110.267 183.589 110.874C183.589 111.134 183.849 111.567 184.108 111.567C184.454 111.654 184.887 111.394 185.147 111.047C185.752 110.267 186.444 109.486 186.79 108.966C187.223 108.446 187.396 108.013 187.482 108.099C187.569 108.099 187.396 108.533 187.05 109.14C186.704 109.747 186.098 110.527 185.493 111.394C185.147 111.827 184.541 112.174 184.022 112.001C183.416 111.827 183.243 111.22 183.243 110.874C183.243 110.527 183.33 110.18 183.416 110.007C183.589 109.92 183.589 109.833 183.676 109.833Z" fill="#D09788"/>
<path d="M72.3278 111.654C72.3278 111.654 84.2671 135.236 86.084 135.582C87.8143 135.929 95.1682 121.364 95.1682 121.364L106.329 130.207C106.329 130.207 99.0615 147.46 87.7278 152.662C82.0177 155.263 71.03 134.889 63.9356 118.85C63.8491 118.59 60.1289 109.833 60.1289 109.833" fill="#D09788"/>
<path d="M73.7987 116.162C73.7987 116.162 73.4526 114.948 72.3279 111.654L72.4144 103.158C72.4144 103.158 70.9436 102.117 70.6841 106.019C70.511 107.752 67.5694 108.533 66.9638 106.192C66.3582 103.851 68.6942 101.51 71.3762 102.724C71.3762 102.724 72.5009 102.291 72.2414 101.337C71.9818 100.383 68.4346 99.5162 66.6178 101.163C65.4065 102.204 64.8874 103.678 64.8874 103.678C64.8874 103.678 61.8593 96.3084 61.2537 96.5685C60.6481 96.8286 60.0425 97.6089 63.4166 105.672C63.4166 105.672 60.129 99.6029 59.6099 98.9094C59.0908 98.2158 57.793 98.2158 58.6582 100.21C58.7447 100.47 61.3402 106.712 61.3402 106.712C61.3402 106.712 58.6582 103.071 58.4852 102.724C57.8796 101.944 57.1009 102.464 57.5335 103.591C57.8796 104.458 59.4369 108.186 59.4369 108.186L64.3683 119.63H64.2818" fill="#D09788"/>
<path d="M63.3301 110.527C63.3301 110.527 63.5896 110.613 64.0222 110.787C64.4548 110.96 65.0604 111.307 65.493 111.827L65.5795 112.001L65.666 111.827C65.7526 111.654 65.8391 111.394 65.9256 111.22C66.3582 110.44 66.9638 109.833 67.3964 109.486C67.9155 109.14 68.2615 109.053 68.2615 108.966C68.2615 108.966 67.9155 108.966 67.3099 109.313C66.7908 109.66 66.0986 110.18 65.666 111.047C65.5795 111.307 65.493 111.48 65.4065 111.741H65.5795C65.0604 111.134 64.4548 110.787 64.0222 110.7C63.5896 110.44 63.3301 110.527 63.3301 110.527Z" fill="#D09788"/>
<path d="M115.587 66.9181C114.203 64.2305 110.915 62.8433 107.973 63.3635C105.032 63.8837 102.523 66.0511 101.225 68.8254C99.9273 71.513 99.7543 74.7208 100.36 77.6685C100.966 80.6162 102.177 83.7373 101.225 86.5984C100.619 88.3323 99.2352 89.7195 97.7644 90.7598C96.2936 91.8869 94.7363 92.8406 93.4385 94.141C92.1408 95.4415 91.1891 97.2621 91.3621 99.0828C91.5352 100.903 93.179 102.637 94.9958 102.377C92.4003 104.371 91.7947 108.273 93.0925 111.22C94.3037 114.255 97.0722 116.422 100.014 117.723C102.436 118.763 105.291 119.37 107.8 118.503C110.396 117.636 112.299 115.382 113.337 112.868C114.376 110.353 114.635 107.579 114.635 104.891C114.722 100.47 114.203 95.9617 111.953 92.147C112.213 93.6208 114.116 94.4011 115.5 93.7942C116.885 93.1873 117.577 91.5401 117.404 89.9795C117.231 88.5057 116.452 87.1185 115.414 85.9915C114.462 84.8644 113.251 83.824 112.299 82.697C110.309 80.4429 109.012 77.4084 109.444 74.4607C109.963 71.513 112.559 68.8254 115.587 68.9121" fill="#263238"/>
<path d="M93.7848 90.8465C93.7848 90.8465 93.8713 90.6731 93.9579 90.3263C94.0444 89.9796 94.0444 89.4594 93.7848 88.9392C93.5253 88.419 92.8331 87.8121 91.968 87.8988C91.1028 87.9855 90.1511 88.5924 89.8916 89.7195C89.632 90.7598 90.0646 92.147 91.1893 92.8406C92.2275 93.5341 93.7848 93.6208 95.1691 93.014C96.5534 92.4071 97.6781 91.28 98.4567 89.8062C99.2354 88.419 99.5815 86.6851 99.5815 84.9511C99.5815 83.2172 99.0624 81.5699 98.6298 80.0094C98.1972 78.4488 97.7646 76.8016 97.8511 75.241C98.0241 72.1199 99.668 69.519 101.225 67.9584C102.869 66.3112 104.599 65.4442 105.724 64.8373C106.33 64.5773 106.762 64.4039 107.108 64.3172C107.454 64.2305 107.628 64.1438 107.628 64.1438C107.628 64.1438 107.454 64.2305 107.195 64.4039C106.849 64.5773 106.416 64.7506 105.897 65.0107C104.772 65.6176 103.129 66.5713 101.571 68.1318C100.014 69.7791 98.4567 72.2066 98.3702 75.241C98.2837 76.7149 98.7163 78.2754 99.1489 79.836C99.5815 81.3965 100.101 83.1305 100.101 84.9511C100.101 86.7718 99.668 88.5057 98.8893 89.9796C98.1107 91.4534 96.8994 92.6672 95.4286 93.3607C93.9579 94.0543 92.314 93.9676 91.1028 93.1007C89.8916 92.3204 89.3725 90.8465 89.7185 89.6328C90.0646 88.419 91.1893 87.7254 92.141 87.6387C92.6601 87.6387 93.0927 87.7254 93.4388 87.9855C93.7848 88.2456 94.0444 88.5057 94.1309 88.8525C94.3904 89.4594 94.3904 89.9796 94.3039 90.3263C93.9579 90.6731 93.7848 90.8465 93.7848 90.8465Z" fill="#263238"/>
<path d="M170.178 326.75L150.626 185L150.106 175.81L101.311 173.469L99.2345 181.185C92.3997 205.374 57.793 322.415 57.793 322.415L74.7503 327.79L125.103 193.669L148.549 326.403L170.178 326.75Z" fill="#263238"/>
<path d="M147.597 174.509C147.511 174.509 147.338 174.249 147.338 173.903C147.338 173.556 147.338 173.209 147.511 173.209C147.597 173.209 147.77 173.469 147.77 173.816C147.77 174.249 147.684 174.509 147.597 174.509Z" fill="#455A64"/>
<path d="M148.116 179.711C148.03 179.711 147.857 179.191 147.77 178.411C147.684 177.717 147.77 177.11 147.857 177.11C147.943 177.11 148.116 177.63 148.203 178.411C148.289 179.104 148.203 179.711 148.116 179.711Z" fill="#455A64"/>
<path d="M148.636 184.826C148.549 184.826 148.376 184.306 148.29 183.526C148.203 182.832 148.29 182.225 148.376 182.225C148.463 182.225 148.636 182.746 148.722 183.526C148.809 184.219 148.722 184.826 148.636 184.826Z" fill="#455A64"/>
<path d="M149.154 190.028C149.068 190.028 148.895 189.508 148.808 188.728C148.722 188.034 148.808 187.427 148.895 187.427C148.981 187.427 149.154 187.947 149.241 188.728C149.327 189.421 149.327 190.028 149.154 190.028Z" fill="#455A64"/>
<path d="M146.82 167.4C146.82 167.4 144.224 158.557 142.84 153.702C142.321 151.708 141.975 149.714 141.888 147.633L141.715 143.212L142.494 139.484L144.916 142.258L156.596 130.034C156.769 130.294 151.318 122.318 145.781 114.515C141.888 109.053 138.081 107.579 135.659 107.406C133.842 106.886 132.112 107.059 132.112 107.059L112.04 106.886C112.04 106.886 105.811 106.539 100.101 111.307C99.1488 112.087 91.4488 122.318 86.2578 132.461L102.35 144.165L105.032 139.484V139.744C105.205 141.391 105.724 144.079 106.157 145.726C107.368 150.841 108.06 157.69 105.465 162.112C105.465 162.112 102.783 168.527 100.879 175.897H150.367C150.107 175.897 148.463 171.648 146.82 167.4Z" fill="#00AEEF"/>
<path d="M113.164 113.388C113.164 113.388 113.251 113.475 113.424 113.648C113.51 113.821 113.597 114.255 113.51 114.688C113.424 115.122 113.078 115.642 112.645 116.075C112.126 116.509 111.607 116.856 111.001 117.376C109.704 118.33 108.233 119.37 106.589 120.584C105.724 121.191 104.945 121.884 103.734 122.231C103.128 122.404 102.523 122.404 101.917 122.231C101.311 122.058 100.792 121.537 100.533 120.93C100.014 119.717 100.446 118.33 101.138 117.463C101.917 116.509 102.869 115.989 103.734 115.469C104.599 114.948 105.464 114.428 106.243 113.995C107.022 113.561 107.714 113.041 108.492 112.781C109.271 112.521 109.877 112.261 110.482 112.087C111.174 112.001 111.693 112.174 112.126 112.347C112.991 112.781 113.164 113.301 113.078 113.301C113.078 113.301 112.818 112.868 112.039 112.521C111.693 112.347 111.088 112.261 110.569 112.347C110.05 112.521 109.357 112.781 108.665 113.128C107.973 113.475 107.281 113.908 106.502 114.428C105.724 114.948 104.859 115.382 103.993 115.989C103.128 116.509 102.177 117.116 101.484 117.896C100.792 118.676 100.533 119.89 100.879 120.93C101.052 121.451 101.484 121.797 102.004 121.971C102.523 122.144 103.042 122.058 103.561 121.971C104.599 121.624 105.464 120.93 106.243 120.41C107.887 119.197 109.444 118.156 110.742 117.289C111.347 116.856 111.953 116.422 112.472 116.075C112.905 115.729 113.251 115.295 113.337 114.862C113.51 113.821 113.078 113.388 113.164 113.388Z" fill="#E0E0E0"/>
<path d="M151.232 129.774C151.232 129.774 151.232 129.86 151.232 130.12C151.146 130.38 150.972 130.727 150.626 130.987C150.28 131.247 149.675 131.421 149.069 131.421C148.464 131.421 147.771 131.334 146.993 131.247C145.435 131.074 143.619 130.814 141.542 130.641C140.504 130.467 139.379 130.467 138.341 129.947C137.822 129.687 137.303 129.253 136.957 128.733C136.611 128.213 136.524 127.433 136.784 126.826C137.216 125.612 138.428 124.832 139.639 124.745C140.85 124.572 141.888 124.832 142.926 125.005C143.965 125.179 144.916 125.439 145.781 125.612C146.647 125.786 147.512 125.959 148.29 126.219C149.069 126.479 149.675 126.739 150.28 127.086C150.799 127.433 151.146 127.953 151.319 128.386C151.665 129.253 151.405 129.774 151.405 129.774C151.405 129.774 151.578 129.253 151.146 128.473C150.972 128.126 150.713 127.606 150.194 127.346C149.675 127.086 148.983 126.826 148.29 126.566C147.598 126.306 146.733 126.219 145.868 126.046C145.003 125.872 143.965 125.699 143.013 125.439C141.975 125.265 140.937 125.005 139.898 125.179C138.86 125.265 137.822 125.959 137.476 126.999C137.303 127.519 137.389 128.04 137.649 128.473C137.908 128.907 138.341 129.253 138.774 129.513C139.725 129.947 140.85 130.034 141.802 130.207C143.792 130.467 145.608 130.727 147.252 130.901C148.031 130.987 148.723 131.161 149.329 131.161C149.934 131.161 150.453 131.074 150.799 130.901C151.232 130.38 151.146 129.774 151.232 129.774Z" fill="#E0E0E0"/>
<path d="M141.628 112.608C141.628 112.608 141.715 112.694 141.888 112.868C141.974 113.041 142.061 113.475 141.974 113.908C141.888 114.341 141.542 114.862 141.109 115.295C140.59 115.729 140.071 116.075 139.465 116.596C138.167 117.549 136.697 118.59 135.053 119.803C134.188 120.41 133.409 121.104 132.198 121.451C131.592 121.624 130.986 121.624 130.381 121.451C129.775 121.277 129.256 120.757 128.997 120.15C128.478 118.936 128.91 117.549 129.602 116.682C130.381 115.729 131.333 115.208 132.198 114.688C133.063 114.168 133.928 113.648 134.707 113.214C135.485 112.781 136.178 112.261 136.956 112.001C137.735 111.741 138.34 111.48 138.946 111.307C139.638 111.22 140.157 111.394 140.59 111.567C141.455 112.001 141.628 112.521 141.542 112.521C141.542 112.521 141.282 112.087 140.503 111.741C140.157 111.567 139.552 111.48 139.033 111.567C138.513 111.741 137.821 112.001 137.129 112.347C136.437 112.694 135.745 113.128 134.966 113.648C134.188 114.168 133.322 114.602 132.457 115.208C131.592 115.729 130.64 116.336 129.948 117.116C129.256 117.896 128.997 119.11 129.343 120.15C129.516 120.67 129.948 121.017 130.467 121.191C130.986 121.364 131.506 121.277 132.025 121.191C133.063 120.844 133.928 120.15 134.707 119.63C136.351 118.416 137.908 117.376 139.206 116.509C139.811 116.075 140.417 115.642 140.936 115.295C141.368 114.948 141.715 114.515 141.801 114.081C141.974 112.954 141.542 112.608 141.628 112.608Z" fill="#E0E0E0"/>
<path d="M96.293 125.179C96.293 125.179 96.3795 125.092 96.6391 125.005C96.8986 124.919 97.2447 124.919 97.6773 125.092C98.1099 125.265 98.5425 125.699 98.802 126.219C99.1481 126.739 99.3211 127.433 99.6672 128.126C100.273 129.6 101.051 131.247 101.83 133.155C102.176 134.108 102.782 135.062 102.868 136.276C102.868 136.883 102.782 137.49 102.522 138.097C102.263 138.617 101.657 139.05 100.965 139.224C99.6672 139.484 98.3694 138.79 97.6773 137.836C96.9852 136.883 96.6391 135.842 96.293 134.889C95.947 133.935 95.6874 132.981 95.3413 132.114C95.0818 131.247 94.7357 130.467 94.6492 129.687C94.4762 128.907 94.3896 128.213 94.3896 127.606C94.4762 126.913 94.7357 126.479 94.9953 126.132C95.6009 125.439 96.12 125.352 96.12 125.352C96.12 125.352 95.6009 125.525 95.1683 126.219C94.9088 126.566 94.6492 127.086 94.6492 127.606C94.7357 128.213 94.8222 128.907 94.9953 129.687C95.1683 130.467 95.5144 131.247 95.7739 132.114C96.0335 132.981 96.3795 133.935 96.7256 134.889C97.0717 135.842 97.4177 136.883 98.1099 137.75C98.7155 138.617 99.8402 139.137 100.965 138.963C101.484 138.877 101.917 138.53 102.176 138.097C102.436 137.663 102.522 137.056 102.522 136.536C102.436 135.496 101.917 134.455 101.571 133.502C100.792 131.594 100.1 129.947 99.4941 128.473C99.2346 127.78 98.975 127.086 98.7155 126.566C98.4559 126.046 98.1099 125.612 97.6773 125.439C96.8121 124.919 96.293 125.265 96.293 125.179Z" fill="#E0E0E0"/>
<path d="M119.134 123.358C119.134 123.358 119.307 123.358 119.566 123.445C119.826 123.531 120.172 123.791 120.345 124.225C120.431 124.312 120.431 124.485 120.518 124.572C120.518 124.658 120.605 124.745 120.778 124.832C121.037 125.005 121.297 125.092 121.556 125.265C122.162 125.612 122.854 125.786 123.633 126.306C123.719 126.392 123.806 126.479 123.892 126.566C123.979 126.652 123.979 126.739 123.979 126.826C123.979 126.913 123.979 126.913 123.979 126.999C123.892 127.259 123.806 127.433 123.719 127.693C123.46 128.126 123.2 128.56 122.854 128.907C122.162 129.687 121.383 130.38 120.518 131.161C119.739 131.941 118.874 132.808 118.701 134.022C118.528 134.629 118.355 135.236 118.096 135.842C117.749 136.449 117.317 136.969 116.625 137.316C116.019 137.663 115.154 137.663 114.548 137.316C113.943 136.969 113.51 136.449 113.164 135.842C112.558 134.629 112.818 133.328 113.164 132.201C113.856 130.034 114.462 128.04 115.067 126.392C115.414 125.612 115.846 124.919 116.106 124.312C116.452 123.705 117.057 123.358 117.49 123.185C118.442 122.838 119.047 123.185 118.961 123.185C118.961 123.185 118.442 123.011 117.49 123.358C117.057 123.531 116.538 123.878 116.192 124.398C115.846 125.005 115.5 125.699 115.24 126.479C114.721 128.126 114.116 130.12 113.51 132.288C113.251 133.328 113.078 134.629 113.51 135.669C113.77 136.189 114.202 136.623 114.635 136.969C115.154 137.23 115.76 137.23 116.279 136.969C116.798 136.709 117.23 136.189 117.49 135.669C117.749 135.149 117.923 134.542 118.096 133.935C118.182 133.675 118.269 133.328 118.355 132.981C118.528 132.721 118.615 132.461 118.874 132.201C119.22 131.681 119.653 131.247 120.085 130.901C120.864 130.12 121.729 129.427 122.421 128.647C122.767 128.3 123.027 127.866 123.287 127.519C123.373 127.346 123.46 127.086 123.546 126.913C123.546 126.913 123.633 126.826 123.546 126.826C123.546 126.739 123.46 126.739 123.373 126.652C122.681 126.219 121.989 125.872 121.383 125.612C121.037 125.439 120.778 125.265 120.518 125.092C120.431 125.005 120.258 124.832 120.258 124.745C120.258 124.658 120.172 124.485 120.172 124.398C119.999 123.965 119.739 123.705 119.48 123.618C119.307 123.445 119.134 123.445 119.134 123.358Z" fill="#E0E0E0"/>
<path d="M127.699 131.768C127.699 131.768 127.786 131.681 127.959 131.508C128.132 131.421 128.564 131.247 128.997 131.334C129.429 131.421 129.949 131.681 130.381 132.201C130.814 132.635 131.246 133.241 131.679 133.848C132.631 135.062 133.755 136.536 135.053 138.183C135.659 138.963 136.437 139.83 136.783 140.958C136.956 141.564 137.043 142.171 136.87 142.778C136.697 143.385 136.264 143.992 135.659 144.252C134.447 144.772 133.063 144.425 132.198 143.732C131.246 143.038 130.641 142.085 130.122 141.218C129.602 140.351 129.083 139.484 128.564 138.703C128.132 137.923 127.613 137.23 127.267 136.536C126.92 135.842 126.661 135.149 126.488 134.542C126.401 133.848 126.574 133.328 126.747 132.895C127.093 132.028 127.699 131.854 127.699 131.854C127.699 131.854 127.267 132.114 126.92 132.895C126.747 133.328 126.661 133.848 126.747 134.369C126.92 134.889 127.267 135.582 127.526 136.276C127.872 136.969 128.391 137.663 128.824 138.443C129.343 139.224 129.862 140.004 130.381 140.871C130.9 141.738 131.506 142.605 132.371 143.298C133.15 143.992 134.361 144.252 135.399 143.819C135.918 143.558 136.264 143.125 136.351 142.691C136.524 142.171 136.437 141.651 136.264 141.131C135.918 140.091 135.226 139.31 134.62 138.443C133.409 136.796 132.284 135.322 131.333 134.022C130.9 133.415 130.468 132.808 130.035 132.375C129.602 131.941 129.17 131.594 128.824 131.508C128.132 131.334 127.699 131.768 127.699 131.768Z" fill="#E0E0E0"/>
<path d="M109.011 147.807C109.011 147.807 109.011 147.72 109.097 147.46C109.184 147.286 109.444 146.94 109.79 146.766C110.222 146.506 110.828 146.506 111.433 146.593C112.039 146.68 112.731 146.94 113.51 147.113C115.067 147.547 116.797 148.067 118.787 148.587C119.739 148.847 120.864 149.107 121.815 149.801C122.335 150.147 122.681 150.581 122.94 151.188C123.2 151.795 123.113 152.488 122.854 153.095C122.248 154.222 120.864 154.829 119.739 154.742C118.528 154.742 117.49 154.309 116.538 153.962C115.586 153.615 114.635 153.269 113.856 152.922C112.991 152.575 112.212 152.315 111.52 151.881C110.828 151.448 110.222 151.101 109.703 150.754C109.184 150.321 109.011 149.714 108.924 149.28C108.751 148.413 109.097 147.893 109.097 147.893C109.097 147.893 108.924 148.327 109.097 149.194C109.184 149.627 109.444 150.061 109.876 150.494C110.309 150.841 111.001 151.188 111.693 151.535C112.385 151.881 113.164 152.141 114.029 152.488C114.894 152.835 115.846 153.182 116.797 153.529C117.749 153.875 118.787 154.309 119.826 154.309C120.864 154.396 121.988 153.875 122.508 152.922C122.767 152.488 122.767 151.881 122.594 151.448C122.421 150.928 122.075 150.581 121.642 150.234C120.777 149.627 119.739 149.367 118.701 149.107C116.711 148.5 114.981 147.98 113.51 147.547C112.731 147.286 112.126 147.113 111.52 146.94C110.914 146.766 110.395 146.853 110.049 147.026C109.097 147.2 109.097 147.807 109.011 147.807Z" fill="#E0E0E0"/>
<path d="M137.216 167.66C137.216 167.66 137.129 167.747 136.869 167.747C136.61 167.747 136.264 167.66 135.918 167.4C135.572 167.14 135.226 166.62 135.139 166.013C134.966 165.406 134.966 164.713 134.793 163.932C134.534 162.372 134.361 160.551 134.014 158.47C133.928 157.43 133.668 156.39 133.841 155.176C133.928 154.569 134.187 154.049 134.707 153.529C135.139 153.095 135.831 152.835 136.437 152.835C137.735 152.922 138.773 153.962 139.205 155.002C139.638 156.13 139.725 157.257 139.725 158.21C139.811 159.251 139.811 160.204 139.898 161.158C139.898 162.112 139.984 162.892 139.898 163.759C139.811 164.539 139.725 165.233 139.552 165.84C139.292 166.447 138.946 166.88 138.6 167.14C137.821 167.66 137.302 167.574 137.302 167.574C137.302 167.574 137.821 167.574 138.513 167.053C138.859 166.793 139.205 166.36 139.378 165.84C139.465 165.233 139.552 164.539 139.638 163.759C139.725 162.979 139.552 162.112 139.552 161.245C139.465 160.291 139.465 159.337 139.378 158.297C139.292 157.257 139.292 156.216 138.859 155.176C138.513 154.222 137.562 153.355 136.437 153.269C135.918 153.182 135.399 153.442 135.053 153.789C134.707 154.135 134.447 154.656 134.361 155.176C134.187 156.216 134.361 157.257 134.447 158.297C134.707 160.291 134.88 162.198 135.139 163.759C135.226 164.539 135.312 165.233 135.399 165.84C135.485 166.447 135.745 166.88 136.091 167.14C136.696 167.834 137.216 167.574 137.216 167.66Z" fill="#E0E0E0"/>
<path d="M110.742 171.388C110.742 171.388 110.655 171.302 110.569 171.128C110.482 170.955 110.396 170.521 110.569 170.088C110.655 169.654 111.088 169.134 111.607 168.787C112.126 168.441 112.732 168.094 113.424 167.66C114.808 166.88 116.365 165.926 118.096 164.886C118.961 164.366 119.912 163.759 121.037 163.499C121.643 163.412 122.248 163.412 122.854 163.672C123.46 163.932 123.979 164.452 124.152 165.059C124.584 166.36 124.065 167.66 123.2 168.441C122.335 169.308 121.383 169.741 120.432 170.175C119.48 170.608 118.615 171.041 117.75 171.388C116.884 171.735 116.192 172.169 115.414 172.429C114.635 172.689 114.029 172.862 113.337 172.949C112.645 172.949 112.126 172.775 111.78 172.515C111.001 172.082 110.915 171.475 110.915 171.475C110.915 171.475 111.088 171.995 111.866 172.342C112.212 172.515 112.732 172.689 113.337 172.689C113.856 172.602 114.635 172.342 115.327 172.082C116.019 171.822 116.798 171.388 117.577 171.041C118.442 170.608 119.307 170.175 120.172 169.741C121.124 169.308 122.075 168.787 122.854 168.007C123.633 167.313 124.065 166.1 123.719 165.059C123.546 164.539 123.2 164.106 122.681 163.932C122.162 163.759 121.643 163.672 121.124 163.846C120.086 164.019 119.134 164.713 118.269 165.146C116.538 166.186 114.894 167.053 113.51 167.834C112.818 168.18 112.212 168.527 111.693 168.874C111.174 169.221 110.828 169.568 110.742 170.001C110.396 170.955 110.828 171.388 110.742 171.388Z" fill="#E0E0E0"/>
<path d="M110.741 129.513C110.828 129.6 109.011 132.895 106.588 136.883C104.166 140.871 102.089 144.079 102.003 143.992C101.916 143.905 103.733 140.611 106.156 136.623C108.578 132.635 110.655 129.427 110.741 129.513Z" fill="#263238"/>
<path d="M112.299 125.265C112.212 125.265 112.385 124.138 112.039 122.318C111.693 120.497 110.742 118.156 109.184 115.815C108.406 114.688 107.454 113.735 106.502 113.041C105.551 112.347 104.512 112.001 103.561 111.914C101.744 111.654 100.619 112.174 100.619 112.087C100.619 112.087 100.879 111.914 101.398 111.741C101.917 111.567 102.696 111.48 103.647 111.567C104.599 111.654 105.724 112.001 106.762 112.694C107.8 113.388 108.838 114.341 109.617 115.555C111.261 117.896 112.126 120.41 112.472 122.231C112.645 123.185 112.645 123.965 112.558 124.485C112.385 125.005 112.299 125.265 112.299 125.265Z" fill="#263238"/>
<path d="M130.554 106.712C130.554 106.712 130.641 106.799 130.641 106.972C130.727 107.146 130.727 107.492 130.814 107.839C130.9 108.619 130.9 109.747 130.554 111.047C130.208 112.347 129.429 113.821 128.045 115.122C126.747 116.336 124.758 117.202 122.681 117.289C120.605 117.376 118.615 116.682 117.144 115.555C115.673 114.428 114.808 112.954 114.376 111.741C113.943 110.44 113.856 109.313 113.856 108.619C113.856 108.273 113.943 107.926 113.943 107.752C113.943 107.579 114.029 107.492 114.029 107.492C114.116 107.492 113.683 109.226 114.635 111.654C115.154 112.868 116.019 114.255 117.404 115.295C118.788 116.336 120.691 116.942 122.681 116.942C124.671 116.856 126.488 116.075 127.786 114.948C129.083 113.821 129.862 112.347 130.208 111.134C131.073 108.446 130.468 106.712 130.554 106.712Z" fill="#263238"/>
<path d="M138.168 126.913C138.254 126.913 138.86 127.606 139.725 128.993C140.59 130.294 141.629 132.288 142.148 134.715C142.753 137.056 142.667 139.397 142.321 140.871C142.148 141.651 141.975 142.258 141.802 142.691C141.629 143.125 141.456 143.298 141.456 143.298C141.369 143.298 141.802 142.345 142.061 140.871C142.321 139.31 142.321 137.143 141.802 134.802C141.196 132.461 140.244 130.554 139.552 129.167C138.687 127.78 138.168 126.999 138.168 126.913Z" fill="#263238"/>
<path d="M156.336 130.034C156.423 130.12 155.731 130.814 154.693 131.941C153.568 133.155 152.184 134.715 150.626 136.363C148.983 138.097 147.512 139.57 146.474 140.697C145.349 141.738 144.657 142.431 144.657 142.345C144.57 142.258 145.262 141.564 146.301 140.437C147.425 139.224 148.81 137.663 150.367 136.016C152.011 134.282 153.481 132.808 154.52 131.681C155.644 130.641 156.336 130.034 156.336 130.034Z" fill="#263238"/>
<path d="M147.338 139.57C147.252 139.657 146.819 139.397 146.3 139.05C145.781 138.617 145.521 138.27 145.521 138.183C145.608 138.097 146.041 138.357 146.56 138.703C147.079 139.137 147.425 139.484 147.338 139.57Z" fill="#263238"/>
<path d="M150.02 136.796C149.934 136.883 149.501 136.709 148.982 136.363C148.549 136.016 148.203 135.669 148.29 135.582C148.376 135.496 148.809 135.669 149.328 136.016C149.76 136.276 150.02 136.623 150.02 136.796Z" fill="#263238"/>
<path d="M153.395 133.068C153.308 133.155 152.876 132.981 152.443 132.548C152.011 132.201 151.751 131.768 151.751 131.681C151.837 131.594 152.27 131.768 152.703 132.201C153.222 132.548 153.481 132.981 153.395 133.068Z" fill="#263238"/>
<path d="M124.066 119.717C123.979 119.803 123.547 119.197 123.374 118.33C123.201 117.463 123.287 116.769 123.46 116.769C123.547 116.769 123.633 117.463 123.806 118.156C123.979 119.023 124.152 119.63 124.066 119.717Z" fill="#263238"/>
<path d="M129.084 117.289C128.997 117.376 128.565 117.029 128.218 116.422C127.786 115.902 127.613 115.382 127.699 115.295C127.786 115.208 128.218 115.555 128.565 116.162C128.911 116.769 129.17 117.202 129.084 117.289Z" fill="#263238"/>
<path d="M132.284 113.214C132.198 113.301 131.765 113.128 131.159 112.868C130.64 112.521 130.208 112.261 130.294 112.087C130.381 112.001 130.813 112.174 131.419 112.434C131.938 112.781 132.284 113.128 132.284 113.214Z" fill="#263238"/>
<path d="M133.15 109.226C133.15 109.313 132.631 109.4 132.111 109.4C131.506 109.4 131.073 109.226 131.073 109.14C131.073 109.053 131.592 108.966 132.111 108.966C132.631 108.966 133.15 109.053 133.15 109.226Z" fill="#263238"/>
<path d="M117.144 118.416C117.058 118.33 117.231 117.809 117.577 117.202C117.923 116.596 118.355 116.162 118.442 116.162C118.528 116.249 118.355 116.769 118.009 117.376C117.577 118.069 117.231 118.503 117.144 118.416Z" fill="#263238"/>
<path d="M113.51 114.515C113.424 114.428 113.943 114.081 114.462 113.735C115.068 113.388 115.5 113.128 115.587 113.214C115.673 113.301 115.327 113.735 114.722 114.081C114.116 114.515 113.51 114.602 113.51 114.515Z" fill="#263238"/>
<path d="M114.202 109.486C114.202 109.573 113.683 109.833 112.991 109.92C112.299 110.093 111.693 110.093 111.693 109.92C111.693 109.833 112.212 109.573 112.905 109.486C113.597 109.4 114.202 109.313 114.202 109.486Z" fill="#263238"/>
<path d="M102.177 144.079C102.177 144.079 101.917 143.992 101.484 143.732C101.052 143.472 100.446 143.125 99.6675 142.605C98.1967 141.651 96.2069 140.177 94.0439 138.443C91.881 136.796 89.9776 135.236 88.5069 134.195C87.0361 133.155 86.1709 132.548 86.1709 132.461C86.1709 132.461 86.4304 132.548 86.863 132.808C87.2956 133.068 87.9012 133.415 88.6799 133.935C90.1507 134.889 92.1406 136.363 94.3035 138.097C96.4664 139.744 98.3698 141.304 99.8406 142.345C101.225 143.385 102.177 144.079 102.177 144.079Z" fill="#263238"/>
<path d="M89.4585 131.421C89.545 131.508 89.372 132.114 89.0259 132.808C88.6798 133.502 88.2472 134.022 88.1607 134.022C88.0742 133.935 88.2472 133.328 88.5933 132.635C89.0259 131.941 89.372 131.421 89.4585 131.421Z" fill="#263238"/>
<path d="M93.4381 134.195C93.5246 134.282 93.3516 134.889 92.919 135.582C92.573 136.276 92.1404 136.796 92.0539 136.796C91.9673 136.709 92.1404 136.102 92.573 135.409C92.919 134.715 93.2651 134.195 93.4381 134.195Z" fill="#263238"/>
<path d="M97.6774 137.663C97.7639 137.75 97.5044 138.27 97.0718 138.963C96.6392 139.57 96.2066 140.091 96.1201 140.004C96.0336 139.917 96.2931 139.397 96.7257 138.703C97.1583 138.01 97.5909 137.576 97.6774 137.663Z" fill="#263238"/>
<path d="M101.485 139.31C101.571 139.397 101.225 140.177 100.706 141.131C100.187 142.085 99.5812 142.778 99.4947 142.691C99.4082 142.605 99.7542 141.825 100.273 140.871C100.879 139.917 101.398 139.224 101.485 139.31Z" fill="#263238"/>
<path d="M121.902 116.856C126.401 117.202 130.294 113.735 130.467 109.226C130.64 104.891 130.813 100.47 130.813 100.47C130.813 100.47 137.389 99.863 137.821 93.3607C138.254 86.8585 138.081 71.8598 138.081 71.8598C130.727 68.1318 121.989 68.7387 115.24 73.3337L114.202 74.0273L114.548 108.966C114.548 113.128 117.749 116.596 121.902 116.856Z" fill="#D09788"/>
<path d="M134.967 83.3906C134.621 83.0438 134.621 82.4369 134.967 82.0901C135.313 81.7433 135.918 81.7433 136.264 82.0901C136.61 82.4369 136.61 83.0438 136.264 83.3906C135.918 83.7373 135.313 83.7373 134.967 83.3906Z" fill="#263238"/>
<path d="M126.488 82.0901C126.92 82.3502 127.007 82.9571 126.747 83.3906C126.488 83.8241 125.882 83.9108 125.449 83.6507C125.017 83.3906 124.93 82.7837 125.19 82.3502C125.449 81.9167 126.055 81.83 126.488 82.0901Z" fill="#263238"/>
<path d="M130.9 89.4594C130.9 89.3727 131.419 89.286 132.371 89.1993C132.63 89.1993 132.803 89.1126 132.803 89.0259C132.89 88.8525 132.803 88.5924 132.717 88.3323C132.544 87.7254 132.284 87.1185 132.111 86.5117C131.332 83.8241 130.727 81.6566 130.9 81.6566C131.073 81.6566 131.765 83.7374 132.63 86.425C132.803 87.0318 132.976 87.7254 133.149 88.3323C133.236 88.5924 133.322 88.9392 133.236 89.286C133.149 89.4594 132.976 89.6328 132.803 89.6328C132.63 89.6328 132.544 89.6328 132.371 89.6328C131.419 89.5461 130.9 89.4594 130.9 89.4594Z" fill="#263238"/>
<path d="M130.727 100.47C130.727 100.47 126.574 100.557 122.421 97.5222C122.421 97.5222 124.151 102.291 130.64 102.117L130.727 100.47Z" fill="#7C4435"/>
<path d="M120.086 69.6924C120.345 72.38 122.595 74.7208 125.277 75.0676C126.834 75.241 128.564 74.8075 130.035 75.5011C131.073 76.0213 131.765 77.0617 132.457 77.9286C133.15 78.7956 134.188 79.6626 135.313 79.6626C135.832 79.6626 136.437 79.4025 136.956 79.3158C137.475 79.1424 138.081 79.1424 138.6 79.4892C139.292 77.5818 139.898 75.5011 139.552 73.4204C139.292 71.3396 137.908 69.3456 136.005 68.7387C134.707 68.3919 133.323 68.5653 132.025 68.3919C130.9 68.2185 129.949 67.6984 128.91 67.2649C127.266 66.4846 125.363 65.8777 123.546 66.1378C121.729 66.3979 119.913 67.9584 119.999 69.7791" fill="#263238"/>
<path d="M114.635 87.4653C116.971 89.3727 119.826 84.4309 121.124 81.3965C122.422 78.2754 122.768 74.8942 122.941 71.5997C123.027 70.4727 123.027 69.2589 122.335 68.3919C121.643 67.4383 121.384 68.5653 120.605 67.785C119.134 66.1378 116.539 67.0048 115.154 67.6117C112.991 68.5653 111.607 70.9929 111.175 73.5071C110.742 76.0213 111.088 78.5355 111.434 81.0497C111.607 82.1768 111.78 83.3039 111.953 84.5176C112.04 85.2979 112.213 86.1649 112.645 86.8584C113.078 87.3786 113.943 87.8121 114.635 87.4653Z" fill="#263238"/>
<path d="M114.548 82.0901C114.548 81.5699 114.116 81.1364 113.597 81.1364C112.385 81.1364 110.396 81.5699 110.223 84.9511C109.963 89.7195 114.548 88.5057 114.548 88.419C114.548 88.2456 114.548 83.9974 114.548 82.0901Z" fill="#D09788"/>
<path d="M113.51 86.5117C113.51 86.5117 113.424 86.5984 113.251 86.5984C113.078 86.6851 112.905 86.6851 112.645 86.5984C112.126 86.425 111.78 85.558 111.78 84.691C111.78 84.2575 111.867 83.8241 112.04 83.4773C112.213 83.1305 112.472 82.8704 112.732 82.8704C112.991 82.7837 113.164 82.9571 113.251 83.1305C113.337 83.3039 113.251 83.3906 113.337 83.3906C113.337 83.3906 113.424 83.3039 113.424 83.1305C113.424 83.0438 113.337 82.9571 113.251 82.7837C113.164 82.697 112.991 82.6103 112.818 82.6103C112.472 82.6103 112.126 82.9571 111.867 83.3039C111.694 83.6507 111.521 84.1708 111.521 84.6043C111.521 85.558 111.953 86.5117 112.645 86.7718C112.991 86.8584 113.251 86.7718 113.424 86.6851C113.51 86.5984 113.51 86.5117 113.51 86.5117Z" fill="#7C4435"/>
<path d="M125.905 91.8407L132.624 93.6477C132.624 93.6477 129.911 96.2015 128.055 95.3947C126.33 94.4263 125.905 91.8407 125.905 91.8407Z" fill="white"/>
<path d="M123.831 80.0411C123.166 80.6649 124.086 78.1695 125.061 77.8818C126.035 77.594 127.119 77.8942 127.347 78.7461C127.347 78.7461 124.648 77.882 123.831 80.0411Z" fill="black"/>
<path d="M116.624 66.4846C116.624 66.658 115.586 66.9181 114.548 67.6984C113.683 68.3052 113.077 68.9988 112.818 69.2589L112.472 69.6057L112.731 69.1722C112.818 69.0855 112.818 68.9988 112.818 69.0855C112.818 69.0855 112.818 69.1722 112.818 69.2589L112.645 69.1722C112.731 68.8254 113.25 68.0451 114.202 67.3516C115.413 66.4846 116.624 66.3979 116.624 66.4846Z" fill="#E8505B"/>
</g>
<defs>
<filter id="filter0_d" x="-3" y="-1" width="241" height="199" filterUnits="userSpaceOnUse" color-interpolation-filters="sRGB">
<feFlood flood-opacity="0" result="BackgroundImageFix"/>
<feColorMatrix in="SourceAlpha" type="matrix" values="0 0 0 0 0 0 0 0 0 0 0 0 0 0 0 0 0 0 127 0" result="hardAlpha"/>
<feOffset dx="2" dy="4"/>
<feGaussianBlur stdDeviation="2.5"/>
<feColorMatrix type="matrix" values="0 0 0 0 0.241927 0 0 0 0 0.241927 0 0 0 0 0.241927 0 0 0 0.25 0"/>
<feBlend mode="normal" in2="BackgroundImageFix" result="effect1_dropShadow"/>
<feBlend mode="normal" in="SourceGraphic" in2="effect1_dropShadow" result="shape"/>
</filter>
<filter id="filter1_d" x="143.214" y="25.6639" width="34.3904" height="34.2151" filterUnits="userSpaceOnUse" color-interpolation-filters="sRGB">
<feFlood flood-opacity="0" result="BackgroundImageFix"/>
<feColorMatrix in="SourceAlpha" type="matrix" values="0 0 0 0 0 0 0 0 0 0 0 0 0 0 0 0 0 0 127 0" result="hardAlpha"/>
<feOffset dx="2" dy="4"/>
<feGaussianBlur stdDeviation="2.5"/>
<feColorMatrix type="matrix" values="0 0 0 0 0.241927 0 0 0 0 0.241927 0 0 0 0 0.241927 0 0 0 0.25 0"/>
<feBlend mode="normal" in2="BackgroundImageFix" result="effect1_dropShadow"/>
<feBlend mode="normal" in="SourceGraphic" in2="effect1_dropShadow" result="shape"/>
</filter>
<clipPath id="clip0">
<rect width="231" height="189" fill="white"/>
</clipPath>
</defs>
</svg>
